{
    "window.zoomLevel": 0,
    "vim.disableAnnoyingNeovimMessage": true,
    "git.enabled": false,
    "git.path": null,
    "git.autofetch": false,
    "editor.parameterHints": false,
    "workbench.iconTheme": "vscode-icons",
    "python.linting.enabledWithoutWorkspace": true,
    "python.disablePromptForFeatures": [
        "pylint"
    ],
    "files.associations": {
        "*.cu": "cpp"
    },
    "vsicons.dontShowNewVersionMessage": true,
    "python.formatting.provider": "black",
    "python.formatting.provider": "black",
    "python.formatting.blackPath": "/home/jfinken/miniconda3/envs/py37/bin/black",
    "editor.formatOnSave": true,
    "python.linting.pylintEnabled": false,
    "python.linting.flake8Enabled": true,
    "python.linting.flake8Args": ["--max-line-length=88"],
    "python.linting.flake8Path": "/home/jfinken/miniconda3/envs/sp/bin/flake8",
    "python.linting.mypyEnabled": true,
    "python.linting.mypyPath": "/home/jfinken/miniconda3/envs/sp/bin/mypy"
}
